<?xml version="1.0" encoding="UTF-8" standalone="no"?>
<!DOCTYPE svg  PUBLIC '-//W3C//DTD SVG 1.1//EN'  'http://www.w3.org/Graphics/SVG/1.1/DTD/svg11.dtd' [
	<!ENTITY ns_svg "http://www.w3.org/2000/svg">
	<!ENTITY ns_xlink "http://www.w3.org/1999/xlink">
]>
<svg xmlns="http://www.w3.org/2000/svg" xml:space="preserve" height="85.04" viewBox="0 0 85.039 85.039" width="85.04" version="1.1" overflow="visible" xmlns:xlink="http://www.w3.org/1999/xlink" enable-background="new 0 0 85.039 85.039">
<polygon points="28.25 0.002 56.77 0.002 78.04 0.002 85.04 0 0 0 7 0.002" fill="none"/>
<rect y=".002" width="28.25" height="85.04" fill="#008D45"/>
<rect y=".002" x="28.25" height="85.04" width="28.52" fill="#fff"/>
<rect y=".002" x="56.77" height="85.04" width="28.27" fill="#D2222B"/>
</svg>
