<?xml version="1.0" encoding="UTF-8" standalone="no"?>
<svg
   xmlns:dc="http://purl.org/dc/elements/1.1/"
   xmlns:cc="http://creativecommons.org/ns#"
   xmlns:rdf="http://www.w3.org/1999/02/22-rdf-syntax-ns#"
   xmlns:svg="http://www.w3.org/2000/svg"
   xmlns="http://www.w3.org/2000/svg"
   width="185.39799"
   height="62.899998"
   viewBox="0 0 49.05322 16.642291"
   version="1.1"
   id="svg1590">
  <defs
     id="defs1584" />
  <metadata
     id="metadata1587">
    <rdf:RDF>
      <cc:Work
         rdf:about="">
        <dc:format>image/svg+xml</dc:format>
        <dc:type
           rdf:resource="http://purl.org/dc/dcmitype/StillImage" />
        <dc:title></dc:title>
      </cc:Work>
    </rdf:RDF>
  </metadata>
  <g
     transform="matrix(0.26458333,0,0,0.26458333,-240.1951,-5.2916666e-4)"
     id="g6">
    <path
       style="clip-rule:evenodd;fill:#9e9e9e;fill-rule:evenodd"
       id="path4"
       d="m 1076.717,51.672 -15.549,-40.344 c -2.4,-6.231 -9.826,-11.326 -16.504,-11.326 h -136.84 l 18.91,48.646 c 3.672,9.523 9.979,14.354 18.752,14.354 h 147.736 c -6.681,0 -14.105,-5.1 -16.505,-11.33 z" />
  </g>
</svg>
