<?xml version="1.0" encoding="UTF-8" standalone="no"?>
<svg
   xmlns:dc="http://purl.org/dc/elements/1.1/"
   xmlns:cc="http://creativecommons.org/ns#"
   xmlns:rdf="http://www.w3.org/1999/02/22-rdf-syntax-ns#"
   xmlns:svg="http://www.w3.org/2000/svg"
   xmlns="http://www.w3.org/2000/svg"
   xml:space="preserve"
   enable-background="new 0 0 285.532 243.72"
   viewBox="0 0 285.532 243.72"
   height="243.72px"
   width="285.532px"
   y="0px"
   x="0px"
   id="Livello_1"
   version="1.1"><metadata
     id="metadata29"><rdf:RDF><cc:Work
         rdf:about=""><dc:format>image/svg+xml</dc:format><dc:type
           rdf:resource="http://purl.org/dc/dcmitype/StillImage" /><dc:title></dc:title></cc:Work></rdf:RDF></metadata><defs
     id="defs27" /><g
     id="g22"><path
       id="path2"
       d="M54.774,230.758   C6.177,182.162,6.177,103.37,54.772,54.775C103.37,6.177,182.161,6.177,230.757,54.774s48.599,127.389,0,175.987"
       stroke-miterlimit="10"
       stroke-width="36.6528"
       stroke="#F5F5F5"
       fill="none"
       opacity="0.2" /><g
       id="g14"><path
         fill="#8C8C8C"
         id="path4"
         d="M149.748,89.12c0-2.642-2.141-4.783-4.787-4.783h-3.884c-2.642,0-4.783,2.142-4.783,4.783v19.715    c-1.978,1.822-3.225,4.418-3.225,7.315c0,5.499,4.458,9.949,9.957,9.949c5.488,0,9.946-4.45,9.946-9.949    c0-2.897-1.246-5.493-3.225-7.315V89.12z M143.026,122.846c-3.693,0-6.703-3.005-6.703-6.696c0-1.882,0.778-3.632,2.179-4.922    l1.042-0.963v-1.431V89.12c0-0.844,0.699-1.535,1.533-1.535h3.884c0.844,0,1.533,0.691,1.533,1.535v19.715v1.431l1.045,0.963    c1.402,1.29,2.174,3.04,2.174,4.922C149.712,119.841,146.707,122.846,143.026,122.846z" /><path
         fill="#8C8C8C"
         id="path6"
         d="M144.78,111.431V94.639h-3.519v16.792c-1.921,0.714-3.303,2.555-3.303,4.726    c0,2.802,2.265,5.061,5.067,5.061c2.798,0,5.052-2.259,5.052-5.061C148.078,113.986,146.707,112.15,144.78,111.431z" /><rect
         fill="#8C8C8C"
         id="rect8"
         height="3.104"
         width="16.644"
         y="90.317"
         x="152.972" /><rect
         fill="#8C8C8C"
         id="rect10"
         height="2.325"
         width="9.393"
         y="97.112"
         x="152.972" /><rect
         fill="#8C8C8C"
         id="rect12"
         height="3.096"
         width="16.644"
         y="103.129"
         x="152.972" /></g><path
       id="path16"
       d="M217.721,67.81C197.7,47.789,171.08,36.762,142.765,36.762c-28.315,0-54.936,11.026-74.957,31.049   c-41.33,41.33-41.329,108.58,0.002,149.911l1.523-1.523c0.012,0.011,0.021,0.022,0.032,0.033l6.952-6.679   c-1.102-1.096-2.178-2.219-3.225-3.367l-4.941,4.651c-8.117-8.888-14.357-18.885-18.723-29.48l6.273-2.481   c-0.588-1.412-1.142-2.841-1.662-4.286l-6.302,2.37c-3.919-10.945-5.897-22.434-5.927-33.928l6.699,0.081   c0-0.116-0.004-0.23-0.004-0.347c0-1.426,0.037-2.843,0.101-4.253l-6.698-0.194c0.497-11.4,2.908-22.731,7.237-33.464l6.22,2.624   c0.576-1.424,1.188-2.829,1.83-4.217l-6.183-2.734c4.706-10.251,11.222-19.867,19.538-28.37l4.784,4.817   c1.071-1.098,2.169-2.169,3.292-3.214l-4.703-4.898c8.523-7.954,18.193-14.274,28.629-18.804l2.611,6.281   c1.401-0.611,2.82-1.19,4.257-1.735l-2.502-6.32c10.692-4.052,22.101-6.271,33.842-6.498l0.033,6.746   c0.655-0.014,1.312-0.025,1.97-0.025c0.88,0,1.757,0.015,2.631,0.038l0.08-6.746c11.663,0.306,22.991,2.577,33.604,6.659   l-2.535,6.312c1.434,0.553,2.85,1.139,4.248,1.758l2.645-6.271c10.471,4.607,20.162,11.023,28.687,19.088l-4.737,4.866   c1.115,1.053,2.207,2.132,3.271,3.237l4.815-4.783c8.203,8.504,14.619,18.102,19.248,28.32l-6.188,2.699   c0.637,1.391,1.24,2.8,1.809,4.226l6.223-2.589c4.301,10.816,6.661,22.23,7.082,33.703l-6.696,0.148   c0.045,1.193,0.075,2.39,0.075,3.594c0,0.337-0.01,0.671-0.013,1.007l6.698-0.034c-0.108,11.423-2.138,22.829-6.088,33.69   l-6.287-2.399c-0.527,1.442-1.088,2.868-1.683,4.277l6.257,2.511c-4.357,10.429-10.534,20.27-18.537,29.03l-4.943-4.652   c-1.047,1.149-2.123,2.271-3.225,3.367l6.952,6.679c0.014-0.014,0.026-0.028,0.04-0.042l1.524,1.525   C259.053,176.393,259.053,109.142,217.721,67.81z"
       fill="#4F4F4F" /></g></svg>