<?xml version="1.0" encoding="UTF-8" standalone="no"?>
<svg
   xmlns:dc="http://purl.org/dc/elements/1.1/"
   xmlns:cc="http://creativecommons.org/ns#"
   xmlns:rdf="http://www.w3.org/1999/02/22-rdf-syntax-ns#"
   xmlns:svg="http://www.w3.org/2000/svg"
   xmlns="http://www.w3.org/2000/svg"
   xmlns:sodipodi="http://sodipodi.sourceforge.net/DTD/sodipodi-0.dtd"
   xmlns:inkscape="http://www.inkscape.org/namespaces/inkscape"
   xml:space="preserve"
   enable-background="new 0 0 1920 1080"
   viewBox="0 0 1840 868"
   height="868"
   width="1840"
   y="0px"
   x="0px"
   id="Livello_1"
   version="1.1"
   sodipodi:docname="n30_setup_map_bolt.svg"
   inkscape:version="1.0.2-2 (e86c870879, 2021-01-15)"><sodipodi:namedview
     pagecolor="#ffffff"
     bordercolor="#666666"
     borderopacity="1"
     objecttolerance="10"
     gridtolerance="10"
     guidetolerance="10"
     inkscape:pageopacity="0"
     inkscape:pageshadow="2"
     inkscape:window-width="1920"
     inkscape:window-height="1001"
     id="namedview19"
     showgrid="false"
     inkscape:zoom="0.76576087"
     inkscape:cx="920"
     inkscape:cy="434"
     inkscape:window-x="-9"
     inkscape:window-y="-9"
     inkscape:window-maximized="1"
     inkscape:current-layer="Livello_1" /><metadata
     id="metadata327"><rdf:RDF><cc:Work
         rdf:about=""><dc:format>image/svg+xml</dc:format><dc:type
           rdf:resource="http://purl.org/dc/dcmitype/StillImage" /><dc:title /></cc:Work></rdf:RDF></metadata><defs
     id="defs325" /><line
     id="line921"
     y2="1.9999914"
     x2="1050"
     y1="1.9999914"
     x1="790"
     stroke-miterlimit="10"
     style="stroke:none;opacity:0.6;fill:none;stroke:#f5f5f5;stroke-width:4;stroke-miterlimit:10;stroke-dasharray:none" /><line
     id="line923"
     y2="113.99999"
     x2="1050"
     y1="113.99999"
     x1="790"
     stroke-miterlimit="10"
     style="stroke:none;opacity:0.6;fill:none;stroke:#f5f5f5;stroke-width:1.76300001;stroke-miterlimit:10;stroke-dasharray:none" /><line
     id="line961"
     y2="-8.5830688e-006"
     x2="1085"
     y1="564"
     x1="1085"
     stroke-miterlimit="10"
     style="stroke:none;opacity:0.6;fill:none;stroke:#f5f5f5;stroke-width:1.76300001;stroke-miterlimit:10;stroke-dasharray:none" /><line
     id="line921-4"
     y2="113.99999"
     x2="1380"
     y1="113.99999"
     x1="1120"
     stroke-miterlimit="10"
     style="stroke:none;opacity:0.6;fill:none;stroke:#f5f5f5;stroke-width:1.76300001;stroke-miterlimit:10;stroke-dasharray:none" /><line
     id="line923-7"
     y2="225.99998"
     x2="1380"
     y1="225.99998"
     x1="1120"
     stroke-miterlimit="10"
     style="stroke:none;opacity:0.6;fill:none;stroke:#f5f5f5;stroke-width:4;stroke-miterlimit:10;stroke-dasharray:none" /><line
     id="line921-2"
     y2="225.99998"
     x2="1050"
     y1="225.99998"
     x1="790"
     stroke-miterlimit="10"
     style="stroke:none;opacity:0.6;fill:none;stroke:#f5f5f5;stroke-width:4;stroke-miterlimit:10;stroke-dasharray:none" /><line
     id="line923-4"
     y2="338"
     x2="1050"
     y1="338"
     x1="790"
     stroke-miterlimit="10"
     style="stroke:none;opacity:0.6;fill:none;stroke:#f5f5f5;stroke-width:4;stroke-miterlimit:10;stroke-dasharray:none" /><line
     id="line921-4-5"
     y2="1.9999914"
     x2="1380"
     y1="1.9999914"
     x1="1120"
     stroke-miterlimit="10"
     style="stroke:none;opacity:0.6;fill:none;stroke:#f5f5f5;stroke-width:4;stroke-miterlimit:10;stroke-dasharray:none" /><line
     id="line921-7"
     y2="1.9999914"
     x2="720"
     y1="1.9999914"
     x1="460"
     stroke-miterlimit="10"
     style="stroke:none;opacity:0.6;fill:none;stroke:#f5f5f5;stroke-width:4;stroke-miterlimit:10;stroke-dasharray:none" /><line
     id="line923-2"
     y2="113.99999"
     x2="720"
     y1="113.99999"
     x1="460"
     stroke-miterlimit="10"
     style="stroke:none;opacity:0.6;fill:none;stroke:#f5f5f5;stroke-width:1.76300001;stroke-miterlimit:10;stroke-dasharray:none" /><line
     id="line961-3"
     y2="-8.5830688e-006"
     x2="755"
     y1="564"
     x1="755"
     stroke-miterlimit="10"
     style="stroke:none;opacity:0.6;fill:none;stroke:#f5f5f5;stroke-width:1.76300001;stroke-miterlimit:10;stroke-dasharray:none" /><style
     type="text/css"
     id="style3853">
	.st0{stroke:#000000;stroke-miterlimit:10;}
	.st1{fill:none;}
	.st2{opacity:0.6;fill:none;stroke:#F5F5F5;stroke-width:4;stroke-miterlimit:10;enable-background:new    ;}
	.st3{fill:#8C8C8C;}
	.st4{opacity:0.6;fill:none;stroke:#F5F5F5;stroke-miterlimit:10;enable-background:new    ;}
	.st5{opacity:0.6;fill:none;stroke:#F5F5F5;stroke-width:1.7626;stroke-miterlimit:10;enable-background:new    ;}
	.st6{opacity:0.6;fill:none;stroke:#F5F5F5;stroke-width:1.3067;stroke-miterlimit:10;enable-background:new    ;}
	.st7{opacity:0.2;fill:#FF0000;}
	.st8{fill:#160955;}
	.st9{opacity:0.2;fill:none;stroke:#F5F5F5;stroke-width:46.779;stroke-miterlimit:10;enable-background:new    ;}
	.st10{opacity:0.3;fill:#8A8A8A;enable-background:new    ;}
	.st11{fill:#8A8A8A;}
	.st12{fill:none;stroke:#FFFFFF;stroke-width:3.5;}
	.st13{fill:#0A540B;}
	.st14{opacity:0.2;fill:none;stroke:#29097F;stroke-width:4;stroke-miterlimit:10;}
	.st15{opacity:0.2;fill:none;stroke:#000000;stroke-width:47;stroke-miterlimit:10;}
	.st16{opacity:0.2;fill:none;stroke:#000000;stroke-width:3.5;stroke-miterlimit:10;}
	.st17{opacity:0.2;fill:#FFFFFF;enable-background:new    ;}
	.st18{opacity:0.3;fill:none;stroke:#FFFFFF;stroke-width:1.7801;stroke-miterlimit:10;enable-background:new    ;}
	.st19{opacity:0.3;fill:none;stroke:#FFFFFF;stroke-width:1.6528;stroke-miterlimit:10;enable-background:new    ;}
	.st20{fill:#FFFFFF;}
	.st21{fill:#E5E5E5;stroke:#000000;stroke-linecap:round;stroke-miterlimit:10;}
</style><style
     type="text/css"
     id="style2">
	.st0{opacity:0.2;fill:#FFFFFF;enable-background:new    ;}
	.st1{fill:#FFFFFF;}
</style></svg>
